<svg xmlns="http://www.w3.org/2000/svg" width="398.886" height="50.841" viewBox="0 0 398.886 50.841">
  <g id="Grupo_84" data-name="Grupo 84" transform="translate(-64.067 -588.334)">
    <path id="Caminho_42" data-name="Caminho 42" d="M203.732,627.131c0,7.105-4.948,11.422-11.454,11.422-7.305,0-12.552-5.379-12.552-12.053a12.054,12.054,0,0,1,12.186-12.118,11.884,11.884,0,0,1,10.159,5.313l-4.514,2.589a6.983,6.983,0,0,0-12.518,4.25c0,3.951,2.789,6.839,7.3,6.839,3.089,0,5.113-1.362,5.944-3.587h-6.21v-4.647h11.655Z" transform="translate(-14.824 -3.339)" fill="#fff"/>
    <path id="Caminho_43" data-name="Caminho 43" d="M210.305,630.651V614.914h5.312v15.273c0,1.76.831,3.255,3.653,3.255s3.651-1.494,3.651-3.255V614.914h5.313v15.737c0,4.981-3.851,7.969-8.964,7.969S210.305,635.632,210.305,630.651Z" transform="translate(-18.744 -3.407)" fill="#fff"/>
    <path id="Caminho_44" data-name="Caminho 44" d="M240.559,614.914v23.242h-5.311V614.914Z" transform="translate(-21.941 -3.407)" fill="#fff"/>
    <path id="Caminho_45" data-name="Caminho 45" d="M269.15,638.156h-5.312V624.643l-6.01,9.86h-.6l-6.01-9.86v13.513H245.91V614.914h5.311l6.309,10.326,6.309-10.326h5.312Z" transform="translate(-23.307 -3.407)" fill="#fff"/>
    <path id="Caminho_46" data-name="Caminho 46" d="M290.455,634.5h-8.634l-1.161,3.653h-5.811l7.9-23.242h6.773l7.9,23.242h-5.81Zm-1.594-4.979-2.723-8.534-2.723,8.534Z" transform="translate(-27.017 -3.407)" fill="#fff"/>
    <path id="Caminho_47" data-name="Caminho 47" d="M324.939,627.131c0,7.105-4.947,11.422-11.454,11.422-7.3,0-12.552-5.379-12.552-12.053a12.054,12.054,0,0,1,12.186-12.118,11.887,11.887,0,0,1,10.159,5.313l-4.515,2.589a6.983,6.983,0,0,0-12.517,4.25c0,3.951,2.788,6.839,7.3,6.839,3.088,0,5.113-1.362,5.943-3.587h-6.21v-4.647h11.655Z" transform="translate(-30.36 -3.339)" fill="#fff"/>
    <path id="Caminho_48" data-name="Caminho 48" d="M330.75,626.467a12.086,12.086,0,1,1,12.087,12.085A11.984,11.984,0,0,1,330.75,626.467Zm18.86,0a6.775,6.775,0,1,0-6.773,6.906A6.611,6.611,0,0,0,349.61,626.467Z" transform="translate(-34.182 -3.339)" fill="#fff"/>
    <path id="Caminho_49" data-name="Caminho 49" d="M375.514,633.043v5.113H361.9V614.914h5.312v18.129Z" transform="translate(-38.174 -3.407)" fill="#fff"/>
    <path id="Caminho_50" data-name="Caminho 50" d="M400.764,626.535a11.253,11.253,0,0,1-11.288,11.621h-9.3V614.914h9.3A11.254,11.254,0,0,1,400.764,626.535Zm-5.113,0c0-3.985-2.523-6.508-6.174-6.508h-3.985v13.016h3.985C393.127,633.043,395.65,630.52,395.65,626.535Z" transform="translate(-40.517 -3.407)" fill="#fff"/>
    <path id="Caminho_51" data-name="Caminho 51" d="M433.669,622.883a7.987,7.987,0,0,1-8.135,7.969h-3.486v7.3h-5.312V614.914h8.8A7.987,7.987,0,0,1,433.669,622.883Zm-5.313,0a2.841,2.841,0,0,0-2.822-2.988h-3.486v5.976h3.486A2.84,2.84,0,0,0,428.357,622.883Z" transform="translate(-45.203 -3.407)" fill="#e95d15"/>
    <path id="Caminho_52" data-name="Caminho 52" d="M449.859,634.5h-8.634l-1.162,3.653h-5.81l7.9-23.242h6.773l7.9,23.242H451.02Zm-1.595-4.979-2.722-8.534-2.724,8.534Z" transform="translate(-47.448 -3.407)" fill="#e95d15"/>
    <path id="Caminho_53" data-name="Caminho 53" d="M470.269,630.52h-2.524v7.636h-5.311V614.914h9.3a7.949,7.949,0,0,1,7.968,7.969,7.659,7.659,0,0,1-4.282,6.74l4.947,8.533h-5.711Zm-2.524-4.649h3.985a3.009,3.009,0,0,0,0-5.976h-3.985Z" transform="translate(-51.06 -3.407)" fill="#e95d15"/>
    <path id="Caminho_54" data-name="Caminho 54" d="M498.6,638.156,491.164,627.4v10.757h-5.311V614.914h5.311v10.094l7.105-10.094h6.043l-7.835,11.322,8.168,11.92Z" transform="translate(-54.062 -3.407)" fill="#e95d15"/>
    <g id="Grupo_83" data-name="Grupo 83" transform="translate(454.022 611.477)">
      <path id="Caminho_55" data-name="Caminho 55" d="M520.283,619.225a4.467,4.467,0,1,1-4.452-4.346A4.367,4.367,0,0,1,520.283,619.225Zm-7.818,0a3.367,3.367,0,0,0,3.392,3.472,3.328,3.328,0,0,0,3.312-3.445,3.355,3.355,0,1,0-6.7-.026Zm2.676,2.279h-1.007v-4.346a8.812,8.812,0,0,1,1.669-.133,2.708,2.708,0,0,1,1.511.318,1.207,1.207,0,0,1,.424.954,1.113,1.113,0,0,1-.9,1.007v.053a1.282,1.282,0,0,1,.794,1.06,3.3,3.3,0,0,0,.318,1.086h-1.086a3.716,3.716,0,0,1-.344-1.06c-.08-.477-.345-.689-.9-.689h-.477Zm.026-2.465h.477c.557,0,1.008-.185,1.008-.636,0-.4-.292-.663-.928-.663a2.387,2.387,0,0,0-.557.053Z" transform="translate(-511.352 -614.879)" fill="#e95d15"/>
    </g>
    <path id="Caminho_56" data-name="Caminho 56" d="M108.452,616.8c0,.1-.007.189-.007.285,0,.126.008.25.01.377,0-.1.013-.2.013-.308C108.468,617.03,108.455,616.915,108.452,616.8Z" transform="translate(-5.688 -3.648)" fill="#fff"/>
    <path id="Caminho_57" data-name="Caminho 57" d="M89.052,588.335c-9.214,0-16.985,4.539-21.042,11l9.351,5.364c1.995-3.163,6.327-5.638,11.759-5.638,8,0,14.437,8.149,14.149,14.086a27.224,27.224,0,0,1,5.506-15.495A25.119,25.119,0,0,0,89.052,588.335Z" transform="translate(-0.505 0)" fill="#e95d15"/>
    <path id="Caminho_58" data-name="Caminho 58" d="M121.078,617.458c0-.126.01-.25.01-.377,0-.1-.006-.19-.007-.285,0,.119-.016.234-.016.354C121.065,617.255,121.076,617.354,121.078,617.458Z" transform="translate(-7.306 -3.648)" fill="#fff"/>
    <path id="Caminho_59" data-name="Caminho 59" d="M107.735,636.862l.034,5.936H119.39l-.011-26.2Z" transform="translate(-5.597 -3.623)" fill="#e95d15"/>
    <path id="Caminho_60" data-name="Caminho 60" d="M149.025,599.365l.005,0c-4.057-6.463-11.823-11.028-21.037-11.028a24.957,24.957,0,0,0-25.229,24.814c0,.119.016.234.016.354,0,.1-.011.2-.013.308-.146,8.023-5.882,13.858-15.115,13.858-6.395,0-10.589-2.82-12.308-7.427H88.2v-9.627H64.067v4.125c0,14.716,10.246,23.655,23.722,23.655a25.99,25.99,0,0,0,20.48-9.287,24.575,24.575,0,0,0,5.5-15.3c0-.1-.013-.2-.013-.308,0-.12.013-.235.016-.354.168-8.268,6.151-14.086,14.149-14.086a17.449,17.449,0,0,1,5.615.9,15.353,15.353,0,0,1,9.785,14.288A15.145,15.145,0,0,1,128.179,629.4v9.776a25.36,25.36,0,0,0,20.846-39.809Z" fill="#fff"/>
  </g>
</svg>
