<svg xmlns="http://www.w3.org/2000/svg" width="53.959" height="77.489" viewBox="0 0 53.959 77.489">
  <g id="Grupo_7" data-name="Grupo 7" transform="translate(-161.086 -337.898)">
    <circle id="Elipse_1" data-name="Elipse 1" cx="14.035" cy="14.035" r="14.035" transform="translate(174.876 350.174)" fill="none" stroke="#fff" stroke-miterlimit="10" stroke-width="5"/>
    <rect id="Retângulo_19" data-name="Retângulo 19" width="18.055" height="9.427" rx="2.833" transform="translate(179.884 337.898)" fill="#e95d15"/>
    <rect id="Retângulo_20" data-name="Retângulo 20" width="18.055" height="5.453" rx="2.154" transform="translate(190.119 341.937)" fill="#e95d15"/>
    <rect id="Retângulo_21" data-name="Retângulo 21" width="4.99" height="7.094" rx="2.495" transform="translate(186.416 382.047)" fill="#e95d15"/>
    <rect id="Retângulo_22" data-name="Retângulo 22" width="2.993" height="16.857" rx="1.496" transform="translate(190.408 407.285) rotate(-180)" fill="none" stroke="#e95d15" stroke-miterlimit="10" stroke-width="3"/>
    <path id="Caminho_25" data-name="Caminho 25" d="M163.658,415.233s-1.973-36.891,25.253-36.988c25.82-.093,23.533,36.988,23.533,36.988" fill="none" stroke="#fff" stroke-miterlimit="10" stroke-width="5"/>
  </g>
</svg>
